tb_sys_picorv32.vcd
$date
	Sun Jan 28 00:03:15 2024
$end
$version
	Icarus Verilog
$end
$timescale
	1ps
$end
$scope module tb_sys_picorv32 $end
$var wire 8 ! LEDR [7:0] $end
$var reg 8 " SW [7:0] $end
$var reg 1 # clk $end
$var reg 1 $ resetn $end
$scope module dutsys $end
$var wire 8 % SW [7:0] $end
$var wire 1 # clk $end
$var wire 1 $ resetn $end
$var wire 1 & trap $end
$var wire 4 ' mem_wstrb [3:0] $end
$var wire 32 ( mem_wdata [31:0] $end
$var wire 1 ) mem_valid $end
$var wire 1 * mem_instr $end
$var wire 32 + mem_addr [31:0] $end
$var reg 8 , LEDR [7:0] $end
$var reg 32 - mem_rdata [31:0] $end
$var reg 1 . mem_ready $end
$scope module uut $end
$var wire 1 # clk $end
$var wire 32 / dbg_mem_addr [31:0] $end
$var wire 1 0 dbg_mem_instr $end
$var wire 32 1 dbg_mem_rdata [31:0] $end
$var wire 1 2 dbg_mem_ready $end
$var wire 1 3 dbg_mem_valid $end
$var wire 32 4 dbg_mem_wdata [31:0] $end
$var wire 4 5 dbg_mem_wstrb [3:0] $end
$var wire 1 6 instr_trap $end
$var wire 32 7 irq [31:0] $end
$var wire 1 8 launch_next_insn $end
$var wire 1 9 mem_done $end
$var wire 1 : mem_la_firstword $end
$var wire 1 ; mem_la_firstword_xfer $end
$var wire 1 < mem_la_read $end
$var wire 1 = mem_la_use_prefetched_high_word $end
$var wire 1 > mem_la_write $end
$var wire 32 ? mem_rdata [31:0] $end
$var wire 1 . mem_ready $end
$var wire 1 @ mem_xfer $end
$var wire 32 A pcpi_div_rd [31:0] $end
$var wire 1 B pcpi_div_ready $end
$var wire 1 C pcpi_div_wait $end
$var wire 1 D pcpi_div_wr $end
$var wire 32 E pcpi_mul_rd [31:0] $end
$var wire 1 F pcpi_mul_ready $end
$var wire 1 G pcpi_mul_wait $end
$var wire 1 H pcpi_mul_wr $end
$var wire 32 I pcpi_rd [31:0] $end
$var wire 1 J pcpi_ready $end
$var wire 32 K pcpi_rs1 [31:0] $end
$var wire 32 L pcpi_rs2 [31:0] $end
$var wire 1 M pcpi_wait $end
$var wire 1 N pcpi_wr $end
$var wire 1 $ resetn $end
$var wire 32 O next_pc [31:0] $end
$var wire 32 P mem_rdata_latched_noshuffle [31:0] $end
$var wire 32 Q mem_rdata_latched [31:0] $end
$var wire 32 R mem_la_addr [31:0] $end
$var wire 1 S mem_busy $end
$var wire 1 T is_rdcycle_rdcycleh_rdinstr_rdinstrh $end
$var reg 32 U alu_add_sub [31:0] $end
$var reg 1 V alu_eq $end
$var reg 1 W alu_lts $end
$var reg 1 X alu_ltu $end
$var reg 32 Y alu_out [31:0] $end
$var reg 1 Z alu_out_0 $end
$var reg 1 [ alu_out_0_q $end
$var reg 32 \ alu_out_q [31:0] $end
$var reg 32 ] alu_shl [31:0] $end
$var reg 32 ^ alu_shr [31:0] $end
$var reg 1 _ alu_wait $end
$var reg 1 ` alu_wait_2 $end
$var reg 64 a cached_ascii_instr [63:0] $end
$var reg 32 b cached_insn_imm [31:0] $end
$var reg 32 c cached_insn_opcode [31:0] $end
$var reg 5 d cached_insn_rd [4:0] $end
$var reg 5 e cached_insn_rs1 [4:0] $end
$var reg 5 f cached_insn_rs2 [4:0] $end
$var reg 1 g clear_prefetched_high_word $end
$var reg 1 h clear_prefetched_high_word_q $end
$var reg 1 i compressed_instr $end
$var reg 64 j count_cycle [63:0] $end
$var reg 64 k count_instr [63:0] $end
$var reg 8 l cpu_state [7:0] $end
$var reg 32 m cpuregs_rs1 [31:0] $end
$var reg 32 n cpuregs_rs2 [31:0] $end
$var reg 32 o cpuregs_wrdata [31:0] $end
$var reg 1 p cpuregs_write $end
$var reg 32 q current_pc [31:0] $end
$var reg 64 r dbg_ascii_instr [63:0] $end
$var reg 128 s dbg_ascii_state [127:0] $end
$var reg 32 t dbg_insn_addr [31:0] $end
$var reg 32 u dbg_insn_imm [31:0] $end
$var reg 32 v dbg_insn_opcode [31:0] $end
$var reg 5 w dbg_insn_rd [4:0] $end
$var reg 5 x dbg_insn_rs1 [4:0] $end
$var reg 5 y dbg_insn_rs2 [4:0] $end
$var reg 1 z dbg_next $end
$var reg 32 { dbg_rs1val [31:0] $end
$var reg 1 | dbg_rs1val_valid $end
$var reg 32 } dbg_rs2val [31:0] $end
$var reg 1 ~ dbg_rs2val_valid $end
$var reg 1 !" dbg_valid_insn $end
$var reg 32 "" decoded_imm [31:0] $end
$var reg 32 #" decoded_imm_j [31:0] $end
$var reg 5 $" decoded_rd [4:0] $end
$var reg 5 %" decoded_rs [4:0] $end
$var reg 5 &" decoded_rs1 [4:0] $end
$var reg 5 '" decoded_rs2 [4:0] $end
$var reg 1 (" decoder_pseudo_trigger $end
$var reg 1 )" decoder_pseudo_trigger_q $end
$var reg 1 *" decoder_trigger $end
$var reg 1 +" decoder_trigger_q $end
$var reg 1 ," do_waitirq $end
$var reg 32 -" eoi [31:0] $end
$var reg 1 ." instr_add $end
$var reg 1 /" instr_addi $end
$var reg 1 0" instr_and $end
$var reg 1 1" instr_andi $end
$var reg 1 2" instr_auipc $end
$var reg 1 3" instr_beq $end
$var reg 1 4" instr_bge $end
$var reg 1 5" instr_bgeu $end
$var reg 1 6" instr_blt $end
$var reg 1 7" instr_bltu $end
$var reg 1 8" instr_bne $end
$var reg 1 9" instr_ecall_ebreak $end
$var reg 1 :" instr_fence $end
$var reg 1 ;" instr_getq $end
$var reg 1 <" instr_jal $end
$var reg 1 =" instr_jalr $end
$var reg 1 >" instr_lb $end
$var reg 1 ?" instr_lbu $end
$var reg 1 @" instr_lh $end
$var reg 1 A" instr_lhu $end
$var reg 1 B" instr_lui $end
$var reg 1 C" instr_lw $end
$var reg 1 D" instr_maskirq $end
$var reg 1 E" instr_or $end
$var reg 1 F" instr_ori $end
$var reg 1 G" instr_rdcycle $end
$var reg 1 H" instr_rdcycleh $end
$var reg 1 I" instr_rdinstr $end
$var reg 1 J" instr_rdinstrh $end
$var reg 1 K" instr_retirq $end
$var reg 1 L" instr_sb $end
$var reg 1 M" instr_setq $end
$var reg 1 N" instr_sh $end
$var reg 1 O" instr_sll $end
$var reg 1 P" instr_slli $end
$var reg 1 Q" instr_slt $end
$var reg 1 R" instr_slti $end
$var reg 1 S" instr_sltiu $end
$var reg 1 T" instr_sltu $end
$var reg 1 U" instr_sra $end
$var reg 1 V" instr_srai $end
$var reg 1 W" instr_srl $end
$var reg 1 X" instr_srli $end
$var reg 1 Y" instr_sub $end
$var reg 1 Z" instr_sw $end
$var reg 1 [" instr_timer $end
$var reg 1 \" instr_waitirq $end
$var reg 1 ]" instr_xor $end
$var reg 1 ^" instr_xori $end
$var reg 1 _" irq_active $end
$var reg 1 `" irq_delay $end
$var reg 32 a" irq_mask [31:0] $end
$var reg 32 b" irq_pending [31:0] $end
$var reg 2 c" irq_state [1:0] $end
$var reg 1 d" is_alu_reg_imm $end
$var reg 1 e" is_alu_reg_reg $end
$var reg 1 f" is_beq_bne_blt_bge_bltu_bgeu $end
$var reg 1 g" is_compare $end
$var reg 1 h" is_jalr_addi_slti_sltiu_xori_ori_andi $end
$var reg 1 i" is_lb_lh_lw_lbu_lhu $end
$var reg 1 j" is_lbu_lhu_lw $end
$var reg 1 k" is_lui_auipc_jal $end
$var reg 1 l" is_lui_auipc_jal_jalr_addi_add_sub $end
$var reg 1 m" is_sb_sh_sw $end
$var reg 1 n" is_sll_srl_sra $end
$var reg 1 o" is_slli_srli_srai $end
$var reg 1 p" is_slti_blt_slt $end
$var reg 1 q" is_sltiu_bltu_sltu $end
$var reg 1 r" last_mem_valid $end
$var reg 1 s" latched_branch $end
$var reg 1 t" latched_compr $end
$var reg 1 u" latched_is_lb $end
$var reg 1 v" latched_is_lh $end
$var reg 1 w" latched_is_lu $end
$var reg 5 x" latched_rd [4:0] $end
$var reg 1 y" latched_stalu $end
$var reg 1 z" latched_store $end
$var reg 1 {" latched_trace $end
$var reg 16 |" mem_16bit_buffer [15:0] $end
$var reg 32 }" mem_addr [31:0] $end
$var reg 1 ~" mem_do_prefetch $end
$var reg 1 !# mem_do_rdata $end
$var reg 1 "# mem_do_rinst $end
$var reg 1 ## mem_do_wdata $end
$var reg 1 * mem_instr $end
$var reg 1 $# mem_la_firstword_reg $end
$var reg 1 %# mem_la_secondword $end
$var reg 32 &# mem_la_wdata [31:0] $end
$var reg 4 '# mem_la_wstrb [3:0] $end
$var reg 32 (# mem_rdata_q [31:0] $end
$var reg 32 )# mem_rdata_word [31:0] $end
$var reg 2 *# mem_state [1:0] $end
$var reg 1 ) mem_valid $end
$var reg 32 +# mem_wdata [31:0] $end
$var reg 2 ,# mem_wordsize [1:0] $end
$var reg 4 -# mem_wstrb [3:0] $end
$var reg 64 .# new_ascii_instr [63:0] $end
$var reg 32 /# next_insn_opcode [31:0] $end
$var reg 32 0# next_irq_pending [31:0] $end
$var reg 32 1# pcpi_insn [31:0] $end
$var reg 32 2# pcpi_int_rd [31:0] $end
$var reg 1 3# pcpi_int_ready $end
$var reg 1 4# pcpi_int_wait $end
$var reg 1 5# pcpi_int_wr $end
$var reg 1 6# pcpi_timeout $end
$var reg 1 7# pcpi_valid $end
$var reg 1 8# prefetched_high_word $end
$var reg 64 9# q_ascii_instr [63:0] $end
$var reg 32 :# q_insn_imm [31:0] $end
$var reg 32 ;# q_insn_opcode [31:0] $end
$var reg 5 <# q_insn_rd [4:0] $end
$var reg 5 =# q_insn_rs1 [4:0] $end
$var reg 5 ># q_insn_rs2 [4:0] $end
$var reg 32 ?# reg_next_pc [31:0] $end
$var reg 32 @# reg_op1 [31:0] $end
$var reg 32 A# reg_op2 [31:0] $end
$var reg 32 B# reg_out [31:0] $end
$var reg 32 C# reg_pc [31:0] $end
$var reg 5 D# reg_sh [4:0] $end
$var reg 1 E# set_mem_do_rdata $end
$var reg 1 F# set_mem_do_rinst $end
$var reg 1 G# set_mem_do_wdata $end
$var reg 32 H# timer [31:0] $end
$var reg 36 I# trace_data [35:0] $end
$var reg 1 J# trace_valid $end
$var reg 1 & trap $end
$scope begin genblk4 $end
$upscope $end
$scope begin genblk6 $end
$upscope $end
$scope begin genblk8 $end
$upscope $end
$scope task empty_statement $end
$upscope $end
$upscope $end
$upscope $end
$upscope $end
$enddefinitions $end
#0
$dumpvars
0J#
bx I#
b0 H#
0G#
0F#
0E#
bx D#
b0 C#
bx B#
bx A#
bx @#
b0 ?#
bx >#
bx =#
bx <#
bx ;#
bx :#
bx 9#
08#
07#
06#
05#
04#
03#
bx 2#
bx 1#
b0 0#
bx /#
b0 .#
bx -#
bx ,#
bx +#
b0 *#
bx )#
bx (#
bx '#
bx &#
0%#
0$#
0##
0"#
0!#
0~"
bx }"
bx |"
0{"
0z"
0y"
bx x"
0w"
0v"
0u"
xt"
0s"
0r"
xq"
xp"
xo"
xn"
xm"
xl"
xk"
xj"
xi"
xh"
0g"
0f"
xe"
xd"
b0 c"
b0 b"
b11111111111111111111111111111111 a"
0`"
0_"
0^"
0]"
x\"
x["
xZ"
0Y"
xX"
0W"
xV"
0U"
0T"
0S"
0R"
0Q"
xP"
0O"
xN"
xM"
xL"
xK"
xJ"
xI"
xH"
xG"
0F"
0E"
xD"
xC"
xB"
xA"
x@"
x?"
x>"
x="
x<"
x;"
0:"
x9"
08"
07"
06"
05"
04"
03"
x2"
01"
00"
0/"
0."
b0 -"
0,"
x+"
0*"
x)"
0("
bx '"
bx &"
bx %"
bx $"
bx #"
bx ""
0!"
x~
bx }
x|
bx {
xz
bx y
bx x
bx w
bx v
bx u
bx t
b110011001100101011101000110001101101000 s
bx r
bx q
0p
bx o
bx n
bx m
b1000000 l
b0 k
b0 j
xi
xh
0g
bx f
bx e
bx d
bx c
bx b
bx a
0`
0_
bx ^
bx ]
bx \
x[
xZ
bx Y
xX
xW
xV
bx U
xT
0S
bx00 R
bx Q
bx P
b0 O
zN
zM
bx L
bx K
zJ
bz I
0H
0G
0F
bx E
0D
0C
0B
bx A
0@
bx ?
0>
0=
0<
0;
0:
09
08
bz 7
x6
bx 5
bx 4
03
02
bx 1
x0
bx /
0.
bx -
bx ,
bx +
x*
0)
bx (
bx '
0&
bx %
0$
1#
bx "
bx !
$end
#5000
0#
#10000
0)"
0+"
0h
0q"
0p"
0z
b0 0#
1#
#15000
0#
#20000
b0 0#
1#
#25000
0#
#30000
b0 0#
1#
#35000
0#
#40000
b0 0#
1#
#45000
0#
#50000
b0 0#
1#
#55000
0#
#60000
b0 0#
1#
#65000
0#
#70000
b0 0#
1#
#75000
0#
#80000
b0 0#
1#
#85000
0#
#90000
b0 0#
1#
#95000
0#
#100000
b0 0#
1#
#105000
0#
#110000
b0 0#
1#
#115000
0#
#120000
b0 0#
1#
#125000
0#
#130000
b0 0#
1#
#135000
0#
#140000
b0 0#
1#
#145000
0#
#150000
b0 0#
1#
#155000
0#
#160000
b0 0#
1#
#165000
0#
#170000
b0 0#
1#
#175000
0#
#180000
b0 0#
1#
#185000
0#
#190000
b0 0#
1#
#195000
0#
#200000
1$
b0 0#
b0 "
b0 %
1#
#205000
0#
#210000
1<
b0 R
b1111 '#
bx b"
b0 ,#
1S
1"#
b1 j
bx q
bx 0#
1#
#215000
0#
#220000
0<
b1 *#
10
1*
13
1)
b0 5
b0 '
b0 -#
b0 /
b0 +
b0 }"
b10 j
bx q
1#
#225000
0#
#230000
19
b1000000000000000000000100010011 Q
b1000000000000000000000100010011 P
1@
b1000000000000000000000100010011 )#
b1000000000000000000000100010011 1
b1000000000000000000000100010011 -
b1000000000000000000000100010011 ?
12
1.
b11 j
1r"
bx q
1#
#235000
0#
#240000
09
bx00 R
18
0@
b0 n
b0 m
b0 *#
03
0)
0r"
b1000000000000000000000100010011 /#
b1000000000000000000000100010011 (#
0i
b0 '"
b0 &"
b10 $"
b10000000000 #"
0e"
1d"
0m"
0i"
0\"
0K"
0="
0<"
02"
0B"
0S
0"#
1*"
b100 j
02
0.
bx q
1#
#245000
0#
#250000
1<
b100 R
08
b11011000110010001011111011100100111001100110001 s
b100 O
06
b1100001011001000110010001101001 .#
b10 w
b0 y
b0 x
b10000000000 u
b1000000000000000000000100010011 v
b1100001011001000110010001101001 r
b100000 l
1S
1~"
b1 k
b100 ?#
0t"
b10 x"
1+"
0*"
b101 j
0~
0|
b10000000000 ""
0n"
1h"
0o"
0["
0D"
0M"
0;"
09"
0T
0J"
0I"
0H"
0G"
0V"
0X"
0P"
1/"
0Z"
0N"
0L"
0A"
0?"
0C"
0@"
0>"
0l"
0k"
b0 t
1!"
1z
bx q
1#
#255000
0#
#260000
0<
b1100101011110000110010101100011 s
b10000000000 Y
b10000000000 &#
b0 ^
b0 ]
1X
1W
0V
b10000000000 U
b1 *#
13
1)
b100 /
b100 +
b100 }"
b10 d
b0 f
b0 e
b1000000000000000000000100010011 c
b10000000000 b
b1100001011001000110010001101001 a
0z
b10 <#
b0 >#
b0 =#
b1000000000000000000000100010011 ;#
b10000000000 :#
b1100001011001000110010001101001 9#
0j"
1l"
b1000 l
1"#
b10000000000 L
b10000000000 A#
1|
b0 {
b0 K
b0 @#
0+"
b110 j
1#
#265000
0#
#270000
19
b100000000000000001101111 Q
b100000000000000001101111 P
1@
b100000000000000001101111 )#
b110011001100101011101000110001101101000 s
1p
b10000000000 o
b100000000000000001101111 1
b100000000000000001101111 -
b100000000000000001101111 ?
12
1.
b1000000 l
1y"
1z"
b10000000000 B#
b111 j
b10000000000 \
1r"
1#
#275000
0#
#280000
09
b0 R
18
0@
b1100001011001000110010001101001 .#
bx n
bx o
0p
b0 *#
03
0)
0r"
b100000000000000001101111 /#
b100000000000000001101111 (#
b1000 '"
b0 $"
b1000 #"
0d"
1<"
0S
0"#
0~"
0y"
0z"
b100 C#
1*"
b1000 j
bx B#
02
0.
bx q
1#
#285000
0#
#290000
1<
b1100 R
08
b11010100110000101101100 r
1p
b1000 o
b1100 O
bx Y
b11010100110000101101100 .#
b0 w
b1000 y
b1000 u
b100000000000000001101111 v
1s"
1S
1"#
b10 k
b1100 ?#
b0 x"
1+"
0*"
b1001 j
0|
bx {
b1000 ""
0l"
0h"
0/"
1k"
b100 t
1z
bx q
1#
#295000
0#
#300000
0<
b10000000000 Y
bx o
0p
b1 *#
13
1)
b1100 /
b1100 +
b1100 }"
b0 d
b1000 f
b100000000000000001101111 c
b1000 b
b11010100110000101101100 a
0z
b0 <#
b1000 >#
b100000000000000001101111 ;#
b1000 :#
b11010100110000101101100 9#
1l"
0s"
b1100 C#
0+"
b1010 j
bx \
bx q
1#
#305000
0#
#310000
19
b11111110000000010000000100010011 Q
b11111110000000010000000100010011 P
1@
b11111110000000010000000100010011 )#
b11111110000000010000000100010011 1
b11111110000000010000000100010011 -
b11111110000000010000000100010011 ?
12
1.
b1011 j
b10000000000 \
1r"
bx q
1#
#315000
0#
#320000
09
b0 R
18
0@
b0 n
b10000000000 m
b0 .#
16
b0 *#
03
0)
0r"
b11111110000000010000000100010011 /#
b11111110000000010000000100010011 (#
b0 '"
b10 &"
b10 $"
b11111111111100010000011111100000 #"
1d"
0<"
0S
0"#
1*"
b1100 j
02
0.
bx q
1#
#325000
0#
#330000
1<
b10000 R
08
b11011000110010001011111011100100111001100110001 s
b10000 O
b1100001011001000110010001101001 .#
06
bx Y
b10 w
b0 y
b10 x
b11111111111111111111111111100000 u
b11111110000000010000000100010011 v
b1100001011001000110010001101001 r
b100000 l
1S
1~"
b11 k
b10000 ?#
b10 x"
1+"
0*"
b1101 j
b11111111111111111111111111100000 ""
1h"
1/"
0l"
0k"
b1100 t
1z
bx q
1#
#335000
0#
#340000
0<
b1100101011110000110010101100011 s
b1111100000 Y
b11111111111111111111111111100000 &#
b10000000000 ^
b10000000000 ]
0W
b1111100000 U
b1 *#
13
1)
b10000 /
b10000 +
b10000 }"
b10 d
b0 f
b10 e
b11111110000000010000000100010011 c
b11111111111111111111111111100000 b
b1100001011001000110010001101001 a
0z
b10 <#
b0 >#
b10 =#
b11111110000000010000000100010011 ;#
b11111111111111111111111111100000 :#
b1100001011001000110010001101001 9#
1l"
b1000 l
1"#
1|
b10000000000 {
b11111111111111111111111111100000 L
b11111111111111111111111111100000 A#
b10000000000 K
b10000000000 @#
0+"
b1110 j
bx \
1#
#345000
0#
#350000
19
b100000010010111000100011 Q
b100000010010111000100011 P
1@
b100000010010111000100011 )#
b110011001100101011101000110001101101000 s
1p
b1111100000 o
b100000010010111000100011 1
b100000010010111000100011 -
b100000010010111000100011 ?
12
1.
b1000000 l
1y"
1z"
b11111111111111111111111111101100 B#
b1111 j
b1111100000 \
1r"
1#
#355000
0#
#360000
09
b10000000000 R
18
0@
bx n
b1111100000 m
bx o
0p
b0 *#
03
0)
0r"
b100000010010111000100011 /#
b100000010010111000100011 (#
b1000 '"
b11100 $"
b10010000000001000 #"
0d"
1m"
0S
0"#
0~"
0y"
0z"
b10000 C#
1*"
b10000 j
bx B#
02
0.
bx q
1#
#365000
0#
#370000
1<
b10100 R
08
b111001101110111 r
b11011000110010001011111011100100111001100110001 s
b10100 O
bx Y
b111001101110111 .#
b11100 w
b1000 y
b11100 u
b100000010010111000100011 v
b100000 l
1S
1~"
b100 k
b10100 ?#
b11100 x"
1+"
0*"
b10001 j
0|
bx {
b11100 ""
0l"
0h"
0/"
1Z"
b10000 t
1z
bx q
1#
#375000
0#
#380000
0<
b111001101110100011011010110010101101101 s
bx &#
bx ^
bx ]
xX
xW
xV
bx U
b1 *#
13
1)
b10100 /
b10100 +
b10100 }"
b11100 d
b1000 f
b100000010010111000100011 c
b11100 b
b111001101110111 a
0z
b11100 <#
b1000 >#
b100000010010111000100011 ;#
b11100 :#
b111001101110111 9#
1"#
b10 l
1~
1|
b1111100000 {
bx L
bx A#
b1111100000 K
b1111100000 @#
0+"
b10010 j
bx \
1#
#385000
0#
#390000
19
b10000000010000010000010011 Q
b10000000010000010000010011 P
1@
b10000000010000010000010011 )#
b10000000010000010000010011 1
b10000000010000010000010011 -
b10000000010000010000010011 ?
12
1.
b10011 j
1r"
1#
#395000
0#
#400000
09
1>
b1111111100 R
0@
b0 n
b0 *#
03
0)
0r"
b10000000010000010000010011 /#
b10000000010000010000010011 (#
b0 '"
b1000 $"
b10000000000100000 #"
1d"
0m"
1##
1S
0"#
0~"
b1111111100 K
b1111111100 @#
1*"
b10100 j
02
0.
1G#
1#
#405000
0#
#410000
0>
b1100001011001000110010001101001 .#
1+"
0*"
b10101 j
b100000 ""
1h"
1/"
0Z"
b10 *#
00
0*
13
1)
b1111 5
b1111 '
b1111 -#
b1111111100 /
b1111111100 +
b1111111100 }"
0G#
1#
#415000
0#
#420000
19
bx Q
bx P
1@
bx )#
1r"
b1000 d
b0 f
b10000000010000010000010011 c
b100000 b
b1100001011001000110010001101001 a
1l"
0+"
b10110 j
bx 1
bx -
bx ?
12
1.
1#
#425000
0#
#430000
09
0@
18
b110011001100101011101000110001101101000 s
b0 *#
03
0)
02
0.
0S
0##
1("
1*"
b1000000 l
b10111 j
bx /#
bx (#
0r"
1#
#435000
0#
#440000
1<
b11000 R
08
b11011000110010001011111011100100111001100110001 s
b11000 O
b1000 w
b0 y
b10000000010000010000010011 v
b100000 u
b1100001011001000110010001101001 r
b10100 t
1z
b100000 l
1S
1~"
b101 k
b11000 ?#
b1000 x"
b10100 C#
1)"
0("
1+"
0*"
b11000 j
0~
0|
bx {
bx q
1#
#445000
0#
#450000
0<
b1100101011110000110010101100011 s
b10000000000 Y
b100000 &#
b1111100000 ^
b1111100000 ]
0X
0W
0V
b10000000000 U
b1 *#
10
1*
13
1)
b0 5
b0 '
b0 -#
b11000 /
b11000 +
b11000 }"
b1000 l
1"#
b100000 L
b100000 A#
1|
b1111100000 {
b1111100000 K
b1111100000 @#
0)"
0+"
b11001 j
b0xxxxxxxxxxxxxxxx c
0z
b1000 <#
b0 >#
b10000000010000010000010011 ;#
b100000 :#
b1100001011001000110010001101001 9#
1#
#455000
0#
#460000
19
b100000000011110010011 Q
b100000000011110010011 P
1@
b110011001100101011101000110001101101000 s
1p
b10000000000 o
b100000000011110010011 )#
1r"
b1000000 l
1y"
1z"
b110100 B#
b11010 j
b10000000000 \
b100000000011110010011 1
b100000000011110010011 -
b100000000011110010011 ?
12
1.
1#
#465000
0#
#470000
09
0@
b1111100000 R
18
bx o
0p
bx n
b0 m
b0 *#
03
0)
02
0.
0S
0"#
0~"
0y"
0z"
b11000 C#
1*"
b11011 j
bx B#
b1 '"
b0 &"
b1111 $"
b100000000000 #"
b100000000011110010011 /#
b100000000011110010011 (#
0r"
bx q
1#
#475000
0#
#480000
1<
b11100 R
08
b1111 w
b1 y
b0 x
b1 u
b100000000011110010011 v
bx Y
b11011000110010001011111011100100111001100110001 s
b11100 O
b11000 t
1z
b1 ""
0l"
b100000 l
1S
1~"
b110 k
b11100 ?#
b1111 x"
1+"
0*"
b11100 j
0|
bx {
bx q
1#
#485000
0#
#490000
0<
b1100101011110000110010101100011 s
b1 &#
b0 ^
b0 ]
1X
1W
b1 U
b1 Y
b1 *#
13
1)
b11100 /
b11100 +
b11100 }"
b1000 l
1"#
1|
b0 {
b1 L
b1 A#
b0 K
b0 @#
0+"
b11101 j
bx \
1l"
b1111 d
b1 f
b0 e
b100000000011110010011 c
b1 b
0z
b1111 <#
b1 >#
b0 =#
b100000000011110010011 ;#
b1 :#
1#
#495000
0#
#500000
19
b11111110111101000010011000100011 Q
b11111110111101000010011000100011 P
1@
b110011001100101011101000110001101101000 s
1p
b1 o
b11111110111101000010011000100011 )#
1r"
b1000000 l
1y"
1z"
b11001 B#
b11110 j
b1 \
b11111110111101000010011000100011 1
b11111110111101000010011000100011 -
b11111110111101000010011000100011 ?
12
1.
1#
#505000
0#
#510000
09
0@
b0 R
18
bx o
0p
b1 n
b10000000000 m
b0 *#
03
0)
02
0.
0S
0"#
0~"
0y"
0z"
b11100 C#
1*"
b11111 j
bx B#
b1111 '"
b1000 &"
b1100 $"
b11111111111101000010111111101110 #"
0d"
1m"
b11111110111101000010011000100011 /#
b11111110111101000010011000100011 (#
0r"
bx q
1#
#515000
0#
#520000
1<
b100000 R
08
b1100 w
b1111 y
b1000 x
b11111111111111111111111111101100 u
b11111110111101000010011000100011 v
b111001101110111 r
bx Y
b111001101110111 .#
b11011000110010001011111011100100111001100110001 s
b100000 O
b11100 t
1z
b11111111111111111111111111101100 ""
0l"
0h"
0/"
1Z"
b100000 l
1S
1~"
b111 k
b100000 ?#
b1100 x"
1+"
0*"
b100000 j
0|
bx {
bx q
1#
#525000
0#
#530000
0<
b111001101110100011011010110010101101101 s
b1000000000 ^
b100000000000 ]
0X
0W
b10000000001 U
b1 *#
13
1)
b100000 /
b100000 +
b100000 }"
1"#
b10 l
1~
b1 }
b1 D#
1|
b10000000000 {
b1 L
b1 A#
b10000000000 K
b10000000000 @#
0+"
b100001 j
bx \
b1100 d
b1111 f
b1000 e
b11111110111101000010011000100011 c
b11111111111111111111111111101100 b
b111001101110111 a
0z
b1100 <#
b1111 >#
b1000 =#
b11111110111101000010011000100011 ;#
b11111111111111111111111111101100 :#
b111001101110111 9#
1#
#535000
0#
#540000
19
b11111110110001000010011110000011 Q
b11111110110001000010011110000011 P
1@
b11111110110001000010011110000011 )#
1r"
b100010 j
bx D#
b11111110110001000010011110000011 1
b11111110110001000010011110000011 -
b11111110110001000010011110000011 ?
12
1.
1#
#545000
0#
#550000
09
1>
0@
b1111101100 R
b111110110 ^
b11111011000 ]
b1111101101 U
bx n
b0 *#
03
0)
02
0.
1##
1S
0"#
0~"
b1111101100 K
b1111101100 @#
1*"
b100011 j
b1100 '"
b1111 $"
b11111111111101000010011111101100 #"
0m"
1i"
b11111110110001000010011110000011 /#
b11111110110001000010011110000011 (#
0r"
1G#
1#
#555000
0#
#560000
0>
b110110001110111 .#
0Z"
1C"
1+"
0*"
b100100 j
b10 *#
00
0*
13
1)
b1 4
b1 (
b1 +#
b1111 5
b1111 '
b1111 -#
b1111101100 /
b1111101100 +
b1111101100 }"
0G#
1#
#565000
0#
#570000
19
bx Q
bx P
1@
bx )#
bx 1
bx -
bx ?
12
1.
0+"
b100101 j
1j"
b1111 d
b1100 f
b11111110110001000010011110000011 c
b110110001110111 a
1r"
1#
#575000
0#
#580000
09
18
0@
b110011001100101011101000110001101101000 s
b0 *#
03
0)
0r"
bx /#
bx (#
0S
0##
1("
1*"
b1000000 l
b100110 j
02
0.
1#
#585000
0#
#590000
1<
b100100 R
08
b11011000110010001011111011100100111001100110001 s
b100100 O
b1111 w
b1100 y
b11111110110001000010011110000011 v
b110110001110111 r
b100000 l
1S
1~"
b1000 k
b100100 ?#
b1111 x"
b100000 C#
1)"
0("
1+"
0*"
b100111 j
0~
0|
bx }
bx {
b100000 t
1z
bx q
1#
#595000
0#
#600000
0<
b110110001100100011011010110010101101101 s
bx &#
bx ^
bx ]
xX
xW
xV
bx U
b1 *#
10
1*
13
1)
b0 5
b0 '
b0 -#
b100100 /
b100100 +
b100100 }"
b0xxxxxxxxxxxxxxxx c
0z
b1111 <#
b1100 >#
b11111110110001000010011110000011 ;#
b110110001110111 9#
1"#
b1 l
1|
b10000000000 {
bx L
bx A#
b10000000000 K
b10000000000 @#
0)"
0+"
b101000 j
1#
#605000
0#
#610000
19
b101111000011100010011 Q
b101111000011100010011 P
1@
b101111000011100010011 )#
b101111000011100010011 1
b101111000011100010011 -
b101111000011100010011 ?
12
1.
1z"
b101001 j
1r"
1#
#615000
0#
#620000
09
1<
b1111101100 R
0@
b1 m
b0 *#
03
0)
0r"
b101111000011100010011 /#
b101111000011100010011 (#
b1 '"
b1111 &"
b1110 $"
b1111000100000000000 #"
1d"
0i"
1!#
1S
0"#
0~"
b1111101100 K
b1111101100 @#
1w"
1*"
b101010 j
02
0.
1E#
1#
#625000
0#
#630000
0<
b1100001011001000110010001101001 .#
1+"
0*"
b101011 j
b1 ""
1h"
1/"
0C"
b1 *#
00
0*
13
1)
b1111101100 /
b1111101100 +
b1111101100 }"
0E#
1#
#635000
0#
#640000
19
b1 Q
b1 P
1@
b1 )#
1r"
b1110 d
b1 f
b1111 e
b101111000011100010011 c
b1 b
b1100001011001000110010001101001 a
0j"
1l"
0+"
b101100 j
b1 1
b1 -
b1 ?
12
1.
1#
#645000
0#
#650000
09
0@
18
b110011001100101011101000110001101101000 s
1p
b1 o
b0 *#
03
0)
02
0.
0S
0!#
b1000000 l
1("
1*"
b1 B#
b101101 j
b1 /#
b1 (#
0r"
1#
#655000
0#
#660000
1<
b101000 R
08
b11011000110010001011111011100100111001100110001 s
b101000 O
b1110 w
b1 y
b1111 x
b101111000011100010011 v
b1 u
b1100001011001000110010001101001 r
bx o
0p
b100100 t
1z
b100000 l
1S
1~"
b1001 k
b101000 ?#
b1110 x"
0w"
0z"
b100100 C#
1)"
0("
1+"
0*"
b101110 j
0|
bx {
bx B#
bx q
1#
#665000
0#
#670000
0<
b1100101011110000110010101100011 s
b10 Y
b1 &#
b0 ^
b10 ]
0X
0W
1V
b10 U
b1 *#
10
1*
13
1)
b101000 /
b101000 +
b101000 }"
b1000 l
1"#
b1 L
b1 A#
1|
b1 {
b1 K
b1 @#
0)"
0+"
b101111 j
b1 c
0z
b1110 <#
b1 >#
b1111 =#
b101111000011100010011 ;#
b1 :#
b1100001011001000110010001101001 9#
1#
#675000
0#
#680000
19
b11111110111001000010011000100011 Q
b11111110111001000010011000100011 P
1@
b110011001100101011101000110001101101000 s
1p
b10 o
b11111110111001000010011000100011 )#
1r"
b1000000 l
1y"
1z"
b100101 B#
b110000 j
b10 \
b11111110111001000010011000100011 1
b11111110111001000010011000100011 -
b11111110111001000010011000100011 ?
12
1.
1#
#685000
0#
